OVERVIEW: MLIR modular optimizer driver

Available Dialects: acc, affine, amdgpu, amx, arith, arm_neon, arm_sme, arm_sve, async, bufferization, builtin, cf, complex, dlti, emitc, func, gpu, index, irdl, linalg, llvm, math, memref, mesh, ml_program, nvgpu, nvvm, omp, pdl, pdl_interp, quant, rocdl, scf, shape, sparse_tensor, spirv, tensor, tosa, transform, ub, vector, x86vector
USAGE: mlir-opt [options] <input file>

OPTIONS:

Color Options:

  --color                                                    - Use colors in output (default=autodetect)

General options:

  --aarch64-neon-syntax=<value>                              - Choose style of NEON code to emit from AArch64 backend:
    =generic                                                 -   Emit generic NEON assembly
    =apple                                                   -   Emit Apple-style NEON assembly
  --aarch64-use-aa                                           - Enable the use of AA during codegen.
  --abort-on-max-devirt-iterations-reached                   - Abort when the max iterations for devirtualization CGSCC repeat pass is reached
  --allow-ginsert-as-artifact                                - Allow G_INSERT to be considered an artifact. Hack around AMDGPU test infinite loops.
  --allow-unregistered-dialect                               - Allow operation with no registered dialects
  --amdgpu-atomic-optimizer-strategy=<value>                 - Select DPP or Iterative strategy for scan
    =DPP                                                     -   Use DPP operations for scan
    =Iterative                                               -   Use Iterative approach for scan
    =None                                                    -   Disable atomic optimizer
  --amdgpu-bypass-slow-div                                   - Skip 64-bit divide for dynamic 32-bit values
  --amdgpu-disable-loop-alignment                            - Do not align and prefetch loops
  --amdgpu-dpp-combine                                       - Enable DPP combiner
  --amdgpu-dump-hsa-metadata                                 - Dump AMDGPU HSA Metadata
  --amdgpu-enable-merge-m0                                   - Merge and hoist M0 initializations
  --amdgpu-enable-power-sched                                - Enable scheduling to minimize mAI power bursts
  --amdgpu-kernarg-preload-count=<uint>                      - How many kernel arguments to preload onto SGPRs
  --amdgpu-promote-alloca-to-vector-limit=<uint>             - Maximum byte size to consider promote alloca to vector
  --amdgpu-sdwa-peephole                                     - Enable SDWA peepholer
  --amdgpu-use-aa-in-codegen                                 - Enable the use of AA during codegen.
  --amdgpu-verify-hsa-metadata                               - Verify AMDGPU HSA Metadata
  --amdgpu-vgpr-index-mode                                   - Use GPR indexing mode instead of movrel for vector indexing
  --arm-add-build-attributes                                 - 
  --arm-implicit-it=<value>                                  - Allow conditional instructions outdside of an IT block
    =always                                                  -   Accept in both ISAs, emit implicit ITs in Thumb
    =never                                                   -   Warn in ARM, reject in Thumb
    =arm                                                     -   Accept in ARM, reject in Thumb
    =thumb                                                   -   Warn in ARM, emit implicit ITs in Thumb
  --asm-show-inst                                            - Emit internal instruction representation to assembly file
  --atomic-counter-update-promoted                           - Do counter update using atomic fetch add  for promoted counters only
  --atomic-first-counter                                     - Use atomic fetch add for first counter in a function (usually the entry counter)
  --bounds-checking-single-trap                              - Use one trap block per function
  --bounds-checking-unique-traps                             - Always use one trap per check
  --bpf-stack-size=<int>                                     - Specify the BPF stack size limit
  --cfg-hide-cold-paths=<number>                             - Hide blocks with relative frequency below the given value
  --cfg-hide-deoptimize-paths                                - 
  --cfg-hide-unreachable-paths                               - 
  --cost-kind=<value>                                        - Target cost kind
    =throughput                                              -   Reciprocal throughput
    =latency                                                 -   Instruction latency
    =code-size                                               -   Code size
    =size-latency                                            -   Code size and latency
  --cs-profile-generate                                      - Perform context sensitive PGO instrumentation
  --cs-profile-path=<string>                                 - Context sensitive profile file path
  --debug-info-correlate                                     - Use debug info to correlate profiles. (Deprecated, use -profile-correlate=debug-info)
  --debugify-func-limit=<ulong>                              - Set max number of processed functions per pass.
  --debugify-level=<value>                                   - Kind of debug info to add
    =locations                                               -   Locations only
    =location+variables                                      -   Locations and Variables
  --debugify-quiet                                           - Suppress verbose debugify output
  Compiler passes to run
    Passes:
      --affine-data-copy-generate                            -   Generate explicit copying for affine memory operations
        --fast-mem-capacity=<ulong>                          - Set fast memory space capacity in KiB (default: unlimited)
        --fast-mem-space=<uint>                              - Fast memory space identifier for copy generation (default: 1)
        --generate-dma                                       - Generate DMA instead of point-wise copy
        --min-dma-transfer=<int>                             - Minimum DMA transfer size supported by the target in bytes
        --skip-non-unit-stride-loops                         - Testing purposes: avoid non-unit stride loop choice depths for copy placement
        --slow-mem-space=<uint>                              - Slow memory space identifier for copy generation (default: 0)
        --tag-mem-space=<uint>                               - Tag memory space identifier for copy generation (default: 0)
      --affine-expand-index-ops                              -   Lower affine operations operating on indices into more fundamental operations
      --affine-loop-coalescing                               -   Coalesce nested loops with independent bounds into a single loop
      --affine-loop-fusion                                   -   Fuse affine loop nests
        --fusion-compute-tolerance=<number>                  - Fractional increase in additional computation tolerated while fusing
        --fusion-fast-mem-space=<uint>                       - Faster memory space number to promote fusion buffers to
        --fusion-local-buf-threshold=<ulong>                 - Threshold size (KiB) for promoting local buffers to fast memory space
        --fusion-maximal                                     - Enables maximal loop fusion
        --mode=<value>                                       - fusion mode to attempt
    =greedy                                            -   Perform greedy (both producer-consumer and sibling)  fusion
    =producer                                          -   Perform only producer-consumer fusion
    =sibling                                           -   Perform only sibling fusion
      --affine-loop-invariant-code-motion                    -   Hoist loop invariant instructions outside of affine loops
      --affine-loop-normalize                                -   Apply normalization transformations to affine loop-like ops
        --promote-single-iter                                - Promote single iteration loops
      --affine-loop-tile                                     -   Tile affine loop nests
        --cache-size=<ulong>                                 - Set size of cache to tile for in KiB (default: 512)
        --separate                                           - Separate full and partial tiles (default: false)
        --tile-size=<uint>                                   - Use this tile size for all loops
        --tile-sizes=<uint>                                  - List of tile sizes for each perfect nest (overridden by -tile-size)
      --affine-loop-unroll                                   -   Unroll affine loops
        --cleanup-unroll                                     - Fully unroll the cleanup loop when possible.
        --unroll-factor=<uint>                               - Use this unroll factor for all loops being unrolled
        --unroll-full                                        - Fully unroll loops
        --unroll-full-threshold=<uint>                       - Unroll all loops with trip count less than or equal to this
        --unroll-num-reps=<uint>                             - Unroll innermost loops repeatedly this many times
        --unroll-up-to-factor                                - Allow unrolling up to the factor specified
      --affine-loop-unroll-jam                               -   Unroll and jam affine loops
        --unroll-jam-factor=<uint>                           - Use this unroll jam factor for all loops (default 4)
      --affine-parallelize                                   -   Convert affine.for ops into 1-D affine.parallel
        --max-nested=<uint>                                  - Maximum number of nested parallel loops to produce. Defaults to unlimited (UINT_MAX).
        --parallel-reductions                                - Whether to parallelize reduction loops. Defaults to false.
      --affine-pipeline-data-transfer                        -   Pipeline non-blocking data transfers between explicitly managed levels of the memory hierarchy
      --affine-scalrep                                       -   Replace affine memref accesses by scalars by forwarding stores to loads and eliminating redundant loads
      --affine-simplify-structures                           -   Simplify affine expressions in maps/sets and normalize memrefs
      --affine-super-vectorize                               -   Vectorize to a target independent n-D vector abstraction
        --test-fastest-varying=<long>                        - Specify a 1-D, 2-D or 3-D pattern of fastest varying memory dimensions to match. See defaultPatterns in Vectorize.cpp for a description and examples. This is used for testing purposes
        --vectorize-reductions                               - Vectorize known reductions expressed via iter_args. Switched off by default.
        --virtual-vector-size=<long>                         - Specify an n-D virtual vector size for vectorization. This must be greater than zero.
      --allocate-arm-sme-tiles                               -   Allocate SME tiles
      --amdgpu-emulate-atomics                               -   Emulate atomic operations on chipsets that do not support them
        --chipset=<string>                                   - Chipset that these operations will run on
      --arith-bufferize                                      -   Bufferize Arith dialect ops.
        --alignment=<uint>                                   - Create global memrefs with a specified alignment
      --arith-emulate-unsupported-floats                     -   Emulate operations on unsupported floats with extf/truncf
        --source-types=<string>                              - MLIR types without arithmetic support on a given target
        --target-type=<string>                               - MLIR type to convert the unsupported source types to
      --arith-emulate-wide-int                               -   Emulate 2*N-bit integer operations using N-bit operations
        --widest-int-supported=<uint>                        - Widest integer type supported by the target
      --arith-expand                                         -   Legalize Arith ops to be convertible to LLVM.
        --include-bf16                                       - Enable the BF16 expansion patterns
      --arith-int-narrowing                                  -   Reduce integer operation bitwidth
        --int-bitwidths-supported=<uint>                     - Integer bitwidths supported
      --arith-unsigned-when-equivalent                       -   Replace signed ops with unsigned ones where they are proven equivalent
      --arm-neon-2d-to-intr                                  -   Convert Arm NEON structured ops to intrinsics
      --arm-sve-legalize-vector-storage                      -   Ensures stores of SVE vector types will be legal
      --async-func-to-async-runtime                          -   Lower async.func operations to the explicit async.runtime andasync.coro operations
      --async-parallel-for                                   -   Convert scf.parallel operations to multiple async compute ops executed concurrently for non-overlapping iteration ranges
        --async-dispatch                                     - Dispatch async compute tasks using recursive work splitting. If `false` async compute tasks will be launched using simple for loop in the caller thread.
        --min-task-size=<int>                                - The minimum task size for sharding parallel operation.
        --num-workers=<int>                                  - The number of available workers to execute async operations. If `-1` the value will be retrieved from the runtime.
      --async-runtime-policy-based-ref-counting              -   Policy based reference counting for Async runtime operations
      --async-runtime-ref-counting                           -   Automatic reference counting for Async runtime operations
      --async-runtime-ref-counting-opt                       -   Optimize automatic reference counting operations for theAsync runtime by removing redundant operations
      --async-to-async-runtime                               -   Lower all high level async operations (e.g. async.execute) tothe explicit async.runtime and async.coro operations
      --buffer-deallocation                                  -   Adds all required dealloc operations for all allocations in the input program
      --buffer-deallocation-simplification                   -   Optimizes `bufferization.dealloc` operation for more efficient codegen
      --buffer-hoisting                                      -   Optimizes placement of allocation operations by moving them into common dominators and out of nested regions
      --buffer-loop-hoisting                                 -   Optimizes placement of allocation operations by moving them out of loop nests
      --buffer-results-to-out-params                         -   Converts memref-typed function results to out-params
      --bufferization-bufferize                              -   Bufferize the `bufferization` dialect
      --bufferization-lower-deallocations                    -   Lowers `bufferization.dealloc` operations to `memref.dealloc`operations
      --canonicalize                                         -   Canonicalize operations
        --disable-patterns=<string>                          - Labels of patterns that should be filtered out during application
        --enable-patterns=<string>                           - Labels of patterns that should be used during application, all other patterns are filtered out
        --max-iterations=<long>                              - Max. iterations between applying patterns / simplifying regions
        --max-num-rewrites=<long>                            - Max. number of pattern rewrites within an iteration
        --region-simplify                                    - Perform control flow optimizations to the region tree
        --test-convergence                                   - Test only: Fail pass on non-convergence to detect cyclic pattern
        --top-down                                           - Seed the worklist in general top-down order
      --control-flow-sink                                    -   Sink operations into conditional blocks
      --convert-affine-for-to-gpu                            -   Convert top-level AffineFor Ops to GPU kernels
        --gpu-block-dims=<uint>                              - Number of GPU block dimensions for mapping
        --gpu-thread-dims=<uint>                             - Number of GPU thread dimensions for mapping
      --convert-amdgpu-to-rocdl                              -   Convert AMDGPU dialect to ROCDL dialect
        --chipset=<string>                                   - Chipset that these operations will run on
      --convert-arith-to-amdgpu                              -   Convert Arith operations to AMDGPU-specific implementations
        --saturate-fp8-truncf                                - Use saturating truncation for 8-bit float types
      --convert-arith-to-arm-sme                             -   Convert Arith dialect to ArmSME dialect
      --convert-arith-to-llvm                                -   Convert Arith dialect to LLVM dialect
        --index-bitwidth=<uint>                              - Bitwidth of the index type, 0 to use size of machine word
      --convert-arith-to-spirv                               -   Convert Arith dialect to SPIR-V dialect
        --emulate-lt-32-bit-scalar-types                     - Emulate narrower scalar types with 32-bit ones if not supported by the target
        --enable-fast-math                                   - Enable fast math mode (assuming no NaN and infinity for floating point values) when performing conversion
      --convert-arm-sme-to-llvm                              -   Lower the operations from the ArmSME dialect into the LLVM dialect
      --convert-arm-sme-to-scf                               -   Lower the operations from the ArmSME dialect into the SCF dialect
      --convert-async-to-llvm                                -   Convert the operations from the async dialect into the LLVM dialect
      --convert-bufferization-to-memref                      -   Convert operations from the Bufferization dialect to the MemRef dialect
      --convert-cf-to-llvm                                   -   Convert ControlFlow operations to the LLVM dialect
        --index-bitwidth=<uint>                              - Bitwidth of the index type, 0 to use size of machine word
      --convert-cf-to-spirv                                  -   Convert ControlFlow dialect to SPIR-V dialect
        --emulate-lt-32-bit-scalar-types                     - Emulate narrower scalar types with 32-bit ones if not supported by the target
      --convert-complex-to-libm                              -   Convert Complex dialect to libm calls
      --convert-complex-to-llvm                              -   Convert Complex dialect to LLVM dialect
      --convert-complex-to-spirv                             -   Convert Complex dialect to SPIRV dialect
      --convert-complex-to-standard                          -   Convert Complex dialect to standard dialect
      --convert-elementwise-to-linalg                        -   Convert ElementwiseMappable ops to linalg
      --convert-func-to-llvm                                 -   Convert from the Func dialect to the LLVM dialect
        --index-bitwidth=<uint>                              - Bitwidth of the index type, 0 to use size of machine word
        --use-bare-ptr-memref-call-conv                      - Replace FuncOp's MemRef arguments with bare pointers to the MemRef element types
      --convert-func-to-spirv                                -   Convert Func dialect to SPIR-V dialect
        --emulate-lt-32-bit-scalar-types                     - Emulate narrower scalar types with 32-bit ones if not supported by the target
      --convert-gpu-launch-to-vulkan-launch                  -   Convert gpu.launch_func to vulkanLaunch external call
      --convert-gpu-to-nvvm                                  -   Generate NVVM operations for gpu operations
        --has-redux                                          - Target gpu supports redux
        --index-bitwidth=<uint>                              - Bitwidth of the index type, 0 to use size of machine word
        --use-bare-ptr-memref-call-conv                      - Replace memref arguments in GPU functions with bare pointers. All memrefs must have static shape.
      --convert-gpu-to-rocdl                                 -   Generate ROCDL operations for gpu operations
        --chipset=<string>                                   - Chipset that these operations will run on
        --index-bitwidth=<uint>                              - Bitwidth of the index type, 0 to use size of machine word
        --runtime=<value>                                    - Runtime code will be run on (default is Unknown, can also use HIP or OpenCl)
    =unknown                                           -   Unknown (default)
    =HIP                                               -   HIP
    =OpenCL                                            -   OpenCL
        --use-bare-ptr-memref-call-conv                      - Replace memref arguments in GPU functions with bare pointers.All memrefs must have static shape
      --convert-gpu-to-spirv                                 -   Convert GPU dialect to SPIR-V dialect
        --use-64bit-index                                    - Use 64-bit integers to convert index types
      --convert-index-to-llvm                                -   Lower the `index` dialect to the `llvm` dialect.
        --index-bitwidth=<uint>                              - Bitwidth of the index type, 0 to use size of machine word
      --convert-index-to-spirv                               -   Lower the `index` dialect to the `spirv` dialect.
        --use-64bit-index                                    - Use 64-bit integers to convert index types
      --convert-linalg-to-affine-loops                       -   Lower the operations from the linalg dialect into affine loops
      --convert-linalg-to-loops                              -   Lower the operations from the linalg dialect into loops
      --convert-linalg-to-parallel-loops                     -   Lower the operations from the linalg dialect into parallel loops
      --convert-linalg-to-std                                -   Convert the operations from the linalg dialect into the Standard dialect
      --convert-math-to-funcs                                -   Convert Math operations to calls of outlined implementations.
        --convert-ctlz                                       - Convert math.ctlz to a software implementation. Enable for targets that do not natively support ctlz.
        --min-width-of-fpowi-exponent=<uint>                 - Convert FPowI only if the width of its exponent's integer type is greater than or equal to this value
      --convert-math-to-libm                                 -   Convert Math dialect to libm calls
      --convert-math-to-llvm                                 -   Convert Math dialect to LLVM dialect
        --approximate-log1p                                  - Enable approximation of Log1p.
      --convert-math-to-spirv                                -   Convert Math dialect to SPIR-V dialect
      --convert-memref-to-spirv                              -   Convert MemRef dialect to SPIR-V dialect
        --bool-num-bits=<int>                                - The number of bits to store a boolean value
        --use-64bit-index                                    - Use 64-bit integers to convert index types
      --convert-nvgpu-to-nvvm                                -   Convert NVGPU dialect to NVVM dialect
      --convert-nvvm-to-llvm                                 -   Convert NVVM to PTX with Inline Assembly in LLVM dialect
      --convert-openacc-to-scf                               -   Convert the OpenACC ops to OpenACC with SCF dialect
      --convert-openmp-to-llvm                               -   Convert the OpenMP ops to OpenMP ops with LLVM dialect
      --convert-parallel-loops-to-gpu                        -   Convert mapped scf.parallel ops to gpu launch operations
      --convert-pdl-to-pdl-interp                            -   Convert PDL ops to PDL interpreter ops
      --convert-scf-to-cf                                    -   Convert SCF dialect to ControlFlow dialect, replacing structured control flow with a CFG
      --convert-scf-to-emitc                                 -   Convert SCF dialect to EmitC dialect, maintaining structured control flow
      --convert-scf-to-openmp                                -   Convert SCF parallel loop to OpenMP parallel + workshare constructs.
        --num-threads=<uint>                                 - Number of threads to use
      --convert-scf-to-spirv                                 -   Convert SCF dialect to SPIR-V dialect.
      --convert-shape-constraints                            -   Convert shape constraint operations to the standard dialect
      --convert-shape-to-std                                 -   Convert operations from the shape dialect into the standard dialect
      --convert-spirv-to-llvm                                -   Convert SPIR-V dialect to LLVM dialect
        --client-api=<value>                                 - Derive StorageClass to address space mapping from the client API
    =Unknown                                           -   Unknown (default)
    =Metal                                             -   Metal
    =OpenCL                                            -   OpenCL
    =Vulkan                                            -   Vulkan
    =WebGPU                                            -   WebGPU
      --convert-tensor-to-linalg                             -   Convert some Tensor dialect ops to Linalg dialect
      --convert-tensor-to-spirv                              -   Convert Tensor dialect to SPIR-V dialect
        --emulate-lt-32-bit-scalar-types                     - Emulate narrower scalar types with 32-bit ones if not supported by the target
      --convert-to-llvm                                      -   Convert to LLVM via dialect interfaces found in the input IR
        --filter-dialects=<string>                           - Test conversion patterns of only the specified dialects
      --convert-ub-to-llvm                                   -   Convert UB dialect to LLVM dialect
        --index-bitwidth=<uint>                              - Bitwidth of the index type, 0 to use size of machine word
      --convert-ub-to-spirv                                  -   Convert UB dialect to SPIR-V dialect
      --convert-vector-to-arm-sme                            -   Lower the operations from the vector dialect into the ArmSME dialect
      --convert-vector-to-gpu                                -   Lower the operations from the vector dialect into the GPU dialect
        --use-nvgpu                                          - convert to NvGPU ops instead of GPU dialect ops
      --convert-vector-to-llvm                               -   Lower the operations from the vector dialect into the LLVM dialect
        --enable-amx                                         - Enables the use of AMX dialect while lowering the vector dialect.
        --enable-arm-neon                                    - Enables the use of ArmNeon dialect while lowering the vector dialect.
        --enable-arm-sve                                     - Enables the use of ArmSVE dialect while lowering the vector dialect.
        --enable-x86vector                                   - Enables the use of X86Vector dialect while lowering the vector dialect.
        --force-32bit-vector-indices                         - Allows compiler to assume vector indices fit in 32-bit if that yields faster code
        --reassociate-fp-reductions                          - Allows llvm to reassociate floating-point reductions for speed
      --convert-vector-to-scf                                -   Lower the operations from the vector dialect into the SCF dialect
        --full-unroll                                        - Perform full unrolling when converting vector transfers to SCF
        --lower-tensors                                      - Lower transfer ops that operate on tensors
        --target-rank=<uint>                                 - Target vector rank to which transfer ops should be lowered
      --convert-vector-to-spirv                              -   Convert Vector dialect to SPIR-V dialect
      --cse                                                  -   Eliminate common sub-expressions
      --decorate-spirv-composite-type-layout                 -   Decorate SPIR-V composite type with layout info
      --drop-equivalent-buffer-results                       -   Remove MemRef return values that are equivalent to a bbArg
      --duplicate-function-elimination                       -   Deduplicate functions
      --eliminate-empty-tensors                              -   Try to eliminate all tensor.empty ops.
      --empty-tensor-to-alloc-tensor                         -   Replace all empty ops by alloc_tensor ops.
      --enable-arm-streaming                                 -   Enable Armv9 Streaming SVE mode
        --only-if-required-by-ops                            - Only apply the selected streaming/ZA modes if the function  contains ops that require them.
        --streaming-mode=<value>                             - Select how streaming-mode is managed at the function-level.
    =disabled                                          -   Streaming mode is disabled.
    =streaming                                         -   Streaming mode is part of the function interface (ABI), caller manages PSTATE.SM on entry/exit.
    =streaming-locally                                 -   Streaming mode is internal to the function, callee manages PSTATE.SM on entry/exit.
    =streaming-compatible                              -   Function supports both streaming and non-streaming modes.
        --za-mode=<value>                                    - Select how ZA-storage is managed at the function-level.
    =disabled                                          -   ZA storage is disabled.
    =new-za                                            -   The function has ZA state. The ZA state is created on entry and destroyed on exit.
    =preserves-za                                      -   The function preserves ZA state. The ZA state is saved on entry and restored on exit.
    =shared-za                                         -   The function uses ZA state. The ZA state may be used for input and/or output.
      --ensure-debug-info-scope-on-llvm-func                 -   Materialize LLVM debug info subprogram attribute on every LLVMFuncOp
      --expand-realloc                                       -   Expand memref.realloc operations into its components
        --emit-deallocs                                      - Emit deallocation operations for the original MemRef
      --expand-strided-metadata                              -   Expand memref operations into easier to analyze constructs
      --finalize-memref-to-llvm                              -   Finalize MemRef dialect to LLVM dialect conversion
        --index-bitwidth=<uint>                              - Bitwidth of the index type, 0 to use size of machine word
        --use-aligned-alloc                                  - Use aligned_alloc in place of malloc for heap allocations
        --use-generic-functions                              - Use generic allocation and deallocation functions instead of the classic 'malloc', 'aligned_alloc' and 'free' functions
      --finalizing-bufferize                                 -   Finalize a partial bufferization
      --fold-memref-alias-ops                                -   Fold memref alias ops into consumer load/store ops
      --fold-tensor-subset-ops                               -   Fold tensor subset ops into producer/consumer ops
      --form-expressions                                     -   Form C-style expressions from C-operator ops
      --func-bufferize                                       -   Bufferize func/call/return ops
      --generate-runtime-verification                        -   Generate additional runtime op verification checks
      --gpu-async-region                                     -   Make GPU ops async
      --gpu-decompose-memrefs                                -   Decomposes memref index computation into explicit ops.
      --gpu-eliminate-barriers                               -   Erase unnecessary barriers
      --gpu-kernel-outlining                                 -   Outline gpu.launch bodies to kernel functions
        --data-layout-str=<string>                           - String containing the data layout specification to be attached to the GPU kernel module
      --gpu-launch-sink-index-computations                   -   Sink index computations into gpu.launch body
      --gpu-map-parallel-loops                               -   Greedily maps loops to GPU hardware dimensions.
      --gpu-module-to-binary                                 -   Transforms a GPU module into a GPU binary.
        --format=<string>                                    - The target representation of the compilation process.
        --handler=<value>                                    - Offloading handler to be attached to the resulting binary op.
        -l <string>                                          - Extra files to link to.
        --opts=<string>                                      - Command line options to pass to the tools.
        --toolkit=<string>                                   - Toolkit path.
      --gpu-to-llvm                                          -   Convert GPU dialect to LLVM dialect with GPU runtime calls
        --gpu-binary-annotation=<string>                     - Annotation attribute string for GPU binary
        --use-bare-pointers-for-host                         - Use bare pointers to pass memref arguments to host functions. All memrefs must have static shape.
        --use-bare-pointers-for-kernels                      - Use bare pointers to pass memref arguments to kernels. The kernel must use the same setting for this option.
      --inline                                               -   Inline function calls
        --default-pipeline=<string>                          - The default optimizer pipeline used for callables
        --max-iterations=<uint>                              - Maximum number of iterations when inlining within an SCC
        --op-pipelines=<pass-manager>                        - Callable operation specific optimizer pipelines (in the form of `dialect.op(pipeline)`)
      --int-range-optimizations                              -   Do optimizations based on integer range analysis
      --launch-func-to-vulkan                                -   Convert vulkanLaunch external call to Vulkan runtime external calls
      --lift-cf-to-scf                                       -   Lift ControlFlow dialect to SCF dialect
      --linalg-bufferize                                     -   Bufferize the linalg dialect
      --linalg-detensorize                                   -   Detensorize linalg ops
        --aggressive-mode                                    - Detensorize all ops that qualify for detensoring along with branch operands and basic-block arguments.
      --linalg-fold-unit-extent-dims                         -   Remove unit-extent dimension in Linalg ops on tensors
        --use-rank-reducing-slices                           - Generate rank-reducing slices instead of reassociative reshapes
      --linalg-fuse-elementwise-ops                          -   Fuse elementwise operations on tensors
      --linalg-generalize-named-ops                          -   Convert named ops into generic ops
      --linalg-inline-scalar-operands                        -   Inline scalar operands into linalg generic ops
      --linalg-named-op-conversion                           -   Convert from one named linalg op to another.
      --llvm-add-comdats                                     -   Add comdats to linkonce and linkonce_odr functions
      --llvm-legalize-for-export                             -   Legalize LLVM dialect to be convertible to LLVM IR
      --llvm-optimize-for-nvvm-target                        -   Optimize NVVM IR
      --llvm-request-c-wrappers                              -   Request C wrapper emission for all functions
      --llvm-type-consistency                                -   Rewrites to improve type consistency
        --max-vector-split-size=<uint>                       - Maximum size in bits of a vector value in a load or store operation operating on multiple elements that should still be split
      --loop-invariant-code-motion                           -   Hoist loop invariant instructions outside of the loop
      --loop-invariant-subset-hoisting                       -   Hoist loop invariant subset ops outside of the loop
      --lower-affine                                         -   Lower Affine operations to a combination of Standard and SCF operations
      --lower-host-to-llvm                                   -   Lowers the host module code and `gpu.launch_func` to LLVM
      --lower-sparse-foreach-to-scf                          -   Decompose a complex sparse operation into multiple stages
      --lower-sparse-ops-to-foreach                          -   Applies sparse tensor rewriting rules after sparsification
        --enable-convert                                     - Enable rewriting rules for the convert operator
        --enable-runtime-library                             - Enable runtime library for manipulating sparse tensors
      --lower-vector-mask                                    -   Lower 'vector.mask' operations
      --map-memref-spirv-storage-class                       -   Map numeric MemRef memory spaces to SPIR-V storage classes
        --client-api=<string>                                - The client API to use for populating mappings
      --math-legalize-to-f32                                 -   Legalize floating-point math ops on low-precision floats
      --math-uplift-to-fma                                   -   Uplift arith ops to math.fma.
      --mem2reg                                              -   Promotes memory slots into values.
        --region-simplify                                    - Perform control flow optimizations to the region tree
      --memref-emulate-wide-int                              -   Emulate 2*N-bit integer operations using N-bit operations
        --widest-int-supported=<uint>                        - Widest integer type supported by the target
      --memref-expand                                        -   Legalize memref operations to be convertible to LLVM.
      --mlprogram-pipeline-globals                           -   Optimize `ml_program` global operations for read and store
      --normalize-memrefs                                    -   Normalize memrefs
      --nvgpu-optimize-shared-memory                         -   Optimizes accesses to shard memory memrefs in order to reduce bank conflicts.
      --nvvm-attach-target                                   -   Attaches an NVVM target attribute to a GPU Module.
        -O <uint>                                            - Optimization level.
        --chip=<string>                                      - Target chip.
        --fast                                               - Enable fast math mode.
        --features=<string>                                  - Target features.
        --ftz                                                - Enable flush to zero for denormals.
        -l <string>                                          - Extra bitcode libraries paths to link to.
        --module=<string>                                    - Regex used to identify the modules to attach the target to.
        --triple=<string>                                    - Target triple.
      --one-shot-bufferize                                   -   One-Shot Bufferize
        --allow-return-allocs-from-loops                     - Allows returning/yielding new allocations from a loop.
        --allow-unknown-ops                                  - Allows unknown (not bufferizable) ops in the input IR.
        --analysis-fuzzer-seed=<uint>                        - Test only: Analyze ops in random order with a given seed (fuzzer)
        --analysis-heuristic=<string>                        - Heuristic that control the IR traversal during analysis
        --bufferize-function-boundaries                      - Bufferize function boundaries (experimental).
        --copy-before-write                                  - Skip the analysis. Make a buffer copy on every write.
        --dialect-filter=<string>                            - Restrict bufferization to ops from these dialects.
        --dump-alias-sets                                    - Test only: Annotate tensor IR with alias sets
        --function-boundary-type-conversion=<string>         - Controls layout maps when bufferizing function signatures.
        --must-infer-memory-space                            - The memory space of an memref types must always be inferred. If unset, a default memory space of 0 is used otherwise.
        --no-analysis-func-filter=<string>                   - Skip analysis of functions with these symbol names.Set copyBeforeWrite to true when bufferizing them.
        --print-conflicts                                    - Test only: Annotate IR with RaW conflicts. Requires test-analysis-only.
        --test-analysis-only                                 - Test only: Only run inplaceability analysis and annotate IR
        --unknown-type-conversion=<string>                   - Controls layout maps for non-inferrable memref types.
      --outline-shape-computation                            -   Using shape.func to preserve shape computation
      --ownership-based-buffer-deallocation                  -   Adds all required dealloc operations for all allocations in the input program
        --private-function-dynamic-ownership                 - Allows to add additional arguments to private functions to dynamically pass ownership of memrefs to callees. This can enable earlier deallocations.
      --pre-sparsification-rewrite                           -   Applies sparse tensor rewriting rules prior to sparsification
      --print-ir                                             -   Print IR on the debug stream
        --label=<string>                                     - Label
      --print-op-stats                                       -   Print statistics of operations
        --json                                               - print the stats as JSON
      --promote-buffers-to-stack                             -   Promotes heap-based allocations to automatically managed stack-based allocations
        --max-alloc-size-in-bytes=<uint>                     - Maximal size in bytes to promote allocations to stack.
        --max-rank-of-allocated-memref=<uint>                - Maximal memref rank to promote dynamic buffers.
      --reconcile-unrealized-casts                           -   Simplify and eliminate unrealized conversion casts
      --remove-dead-values                                   -   Remove dead values
      --remove-shape-constraints                             -   Replace all cstr_ ops with a true witness
      --resolve-ranked-shaped-type-result-dims               -   Resolve memref.dim of result values of ranked shape type
      --resolve-shaped-type-result-dims                      -   Resolve memref.dim of result values
      --rocdl-attach-target                                  -   Attaches a ROCDL target attribute to a GPU Module.
        -O <uint>                                            - Optimization level.
        --abi=<string>                                       - ABI version.
        --chip=<string>                                      - Target chip.
        --correct-sqrt                                       - Enable correct rounded sqrt.
        --daz                                                - Enable denormals are zero opt.
        --fast                                               - Enable fast relaxed math opt.
        --features=<string>                                  - Target features.
        --finite-only                                        - Enable finite only opt.
        -l <string>                                          - Extra bitcode libraries paths to link to.
        --module=<string>                                    - Regex used to identify the modules to attach the target to.
        --triple=<string>                                    - Target triple.
        --unsafe-math                                        - Enable unsafe math opt.
        --wave64                                             - Use Wave64 mode.
      --sccp                                                 -   Sparse Conditional Constant Propagation
      --scf-bufferize                                        -   Bufferize the scf dialect.
      --scf-for-loop-canonicalization                        -   Canonicalize operations within scf.for loop bodies
      --scf-for-loop-peeling                                 -   Peel `for` loops at their upper bounds.
        --peel-front                                         - Peel the first iteration out of the loop.
        --skip-partial                                       - Do not peel loops inside of the last, partial iteration of another already peeled loop.
      --scf-for-loop-range-folding                           -   Fold add/mul ops into loop range
      --scf-for-loop-specialization                          -   Specialize `for` loops for vectorization
      --scf-for-to-while                                     -   Convert SCF for loops to SCF while loops
      --scf-parallel-loop-fusion                             -   Fuse adjacent parallel loops
      --scf-parallel-loop-specialization                     -   Specialize parallel loops for vectorization
      --scf-parallel-loop-tiling                             -   Tile parallel loops
        --no-min-max-bounds                                  - Perform tiling with fixed upper bound with inbound check inside the internal loops
        --parallel-loop-tile-sizes=<long>                    - Factors to tile parallel loops by
      --set-llvm-module-datalayout                           -   Attach a datalayout string as a module attribute
        --data-layout=<string>                               - String description (LLVM format) of the data layout that is expected on the produced module
      --shape-bufferize                                      -   Bufferize the shape dialect.
      --shape-to-shape-lowering                              -   Legalize Shape dialect to be convertible to Arith
      --sharding-propagation                                 -   sharding propagation
      --snapshot-op-locations                                -   Generate new locations from the current IR
        --filename=<string>                                  - The filename to print the generated IR
        --tag=<string>                                       - A tag to use when fusing the new locations with the original. If unset, the locations are replaced.
      --sparse-buffer-rewrite                                -   Rewrite sparse primitives on buffers to actual code
        --enable-buffer-initialization                       - Enable zero-initialization of the memory buffers
      --sparse-gpu-codegen                                   -   Generates GPU code during sparsification
        --enable-runtime-library                             - Enable runtime library for manipulating sparse tensors
        --num-threads=<int>                                  - Sets the number of GPU threads
      --sparse-reinterpret-map                               -   Reinterprets sparse tensor type mappings
        --scope=<value>                                      - Set the reiterpretation scope
    =all                                               -   Run on every applicable operations.
    =only-generic                                      -   Run only on linalg.generic operations.
    =except-generic                                    -   Run on operations expect linalg.generic (e.g., foreach)
      --sparse-storage-specifier-to-llvm                     -   Lower sparse storage specifer to llvm structure
      --sparse-tensor-codegen                                -   Convert sparse tensors and primitives to actual code
        --create-sparse-deallocs                             - Specify if the temporary buffers created by the sparse compiler should be deallocated. For compatibility with core bufferization passes. This option is only used when enable-runtime-library=false. See also create-deallocs for BufferizationOption.
        --enable-buffer-initialization                       - Enable zero-initialization of the memory buffers
      --sparse-tensor-conversion                             -   Convert sparse tensors and primitives to library calls
      --sparse-vectorization                                 -   Vectorizes loops after sparsification
        --enable-simd-index32                                - Enable i32 indexing into vectors (for efficient gather/scatter)
        --enable-vla-vectorization                           - Enable vector length agnostic vectorization
        --vl=<int>                                           - Set the vector length (use 0 to disable vectorization)
      --sparsification                                       -   Automatically generate sparse tensor code from sparse tensor types
        --enable-runtime-library                             - Enable runtime library for manipulating sparse tensors
        --parallelization-strategy=<value>                   - Set the parallelization strategy
    =none                                              -   Turn off sparse parallelization.
    =dense-outer-loop                                  -   Enable dense outer loop sparse parallelization.
    =any-storage-outer-loop                            -   Enable sparse parallelization regardless of storage for the outer loop.
    =dense-any-loop                                    -   Enable dense parallelization for any loop.
    =any-storage-any-loop                              -   Enable sparse parallelization for any storage and loop.
      --sparsification-and-bufferization                     -   Mini-pipeline that combines bufferization and sparsifiation
      --spirv-attach-target                                  -   Attaches an SPIR-V target attribute to a GPU Module.
        --caps=<string>                                      - List of supported SPIR-V Capabilities
        --client_api=<string>                                - Client API
        --device_id=<uint>                                   - Device ID
        --device_type=<string>                               - Device Type
        --exts=<string>                                      - List of supported SPIR-V Extensions
        --module=<string>                                    - Regex used to identify the modules to attach the target to.
        --vendor=<string>                                    - Device Vendor
        --ver=<string>                                       - SPIR-V Version.
      --spirv-canonicalize-gl                                -   Canonicalize GLSL ops
      --spirv-lower-abi-attrs                                -   Decorate SPIR-V composite type with layout info
      --spirv-rewrite-inserts                                -   Rewrite sequential chains of `spirv.CompositeInsert` operations into `spirv.CompositeConstruct` operations
      --spirv-unify-aliased-resource                         -   Unify access of multiple aliased resources into access of one single resource
      --spirv-update-vce                                     -   Deduce and attach minimal (version, capabilities, extensions) requirements to spirv.module ops
      --spirv-webgpu-prepare                                 -   Prepare SPIR-V to target WebGPU by expanding unsupported ops and replacing with supported ones
      --sroa                                                 -   Scalar Replacement of Aggregates
      --stage-sparse-ops                                     -   Decompose a complex sparse operation into multiple stages
      --strip-debuginfo                                      -   Strip debug info from all operations
      --symbol-dce                                           -   Eliminate dead symbols
      --symbol-privatize                                     -   Mark symbols private
        --exclude=<string>                                   - Comma separated list of symbols that should not be marked private
      --tensor-bufferize                                     -   Bufferize the `tensor` dialect
      --test-scf-parallel-loop-collapsing                    -   Test parallel loops collapsing transformation
        --collapsed-indices-0=<uint>                         - Which loop indices to combine 0th loop index
        --collapsed-indices-1=<uint>                         - Which loop indices to combine into the position 1 loop index
        --collapsed-indices-2=<uint>                         - Which loop indices to combine into the position 2 loop index
      --topological-sort                                     -   Sort regions without SSA dominance in topological order
      --tosa-infer-shapes                                    -   Propagate shapes across TOSA operations
      --tosa-layerwise-constant-fold                         -   Fold layerwise operations on constant tensors
        --aggressive-reduce-constant                         - Always perform the reduce constant optimizationMay add more tosa.const but would reduce runtime calculations
      --tosa-make-broadcastable                              -   TOSA rank Reshape to enable Broadcasting
      --tosa-optional-decompositions                         -   Applies Tosa operations optional decompositions
      --tosa-to-arith                                        -   Lower TOSA to the Arith dialect
        --include-apply-rescale                              - Whether to include the lowering for tosa.apply_rescale to arith
        --use-32-bit                                         - Whether to prioritze lowering to 32-bit operations
      --tosa-to-linalg                                       -   Lower TOSA to LinAlg on tensors
        --aggressive-reduce-constant                         - Always perform the reduce constant optimization
        --disable-tosa-decompositions                        - Disable tosa decompositions pass
      --tosa-to-linalg-named                                 -   Lower TOSA to LinAlg named operations
        --prefer-conv2d-kernel-layout-hwcf                   - Prefer generating linalg.conv_2d_nhwc_hwcf over linalg.conv_2d_nhwc_fhwc
      --tosa-to-mlprogram                                    -   Lower TOSA to the MLProgram dialect
      --tosa-to-scf                                          -   Lower TOSA to the SCF dialect
      --tosa-to-tensor                                       -   Lower TOSA to the Tensor dialect
      --tosa-validate                                        -   Validates TOSA dialect
        --level=<value>                                      - Validate if operator parameters are within specfication for the given level
    =8k                                                -   Ranges are expected to be sufficient for applications with frame sizes up to 8K.
    =none                                              -   Allows the full range of arguments specified by the operations according to the operation data types.
        --profile=<value>                                    - Validate if operations match for the given profile
    =bi                                                -   Use Base Inference profile.
    =mi                                                -   Use Main Inference profile.
    =mt                                                -   Use Main Training profile.
    =undefined                                         -   Do not define a profile.
        --strict-op-spec-alignment                           - Verify if the properties of certain operations align the spec requirement
      --transform-dialect-check-uses                         -   warn about potential use-after-free in the transform dialect
      --transform-infer-effects                              -   infer transform side effects for symbols
      --transform-interpreter                                -   transform dialect interpreter
        --debug-payload-root-tag=<string>                    - Select the operation with 'transform.target_tag' attribute having the given value as payload IR root. If empty select the pass anchor operation as the payload IR root.
        --disable-expensive-checks                           - Disable expensive checks in the interpreter for a faster run.
        --entry-point=<string>                               - Entry point of the pass pipeline.
      --transform-preload-library                            -   preload transform dialect library
        --transform-library-paths=<string>                   - Optional paths to files with modules that should be merged into the transform module to provide the definitions of external named sequences.
      --vector-bufferize                                     -   Bufferize Vector dialect ops
      --view-op-graph                                        -   Print Graphviz visualization of an operation
        --max-label-len=<uint>                               - Limit attribute/type length to number of chars
        --print-attrs                                        - Print attributes of operations
        --print-control-flow-edges                           - Print control flow edges
        --print-data-flow-edges                              - Print data flow edges
        --print-result-types                                 - Print result types of operations
    Pass Pipelines:
      --buffer-deallocation-pipeline                         -   The default pipeline for automatically inserting deallocation operations after one-shot bufferization. Deallocation operations (except `memref.realloc`) may not be present already.
        --private-function-dynamic-ownership                 - Allows to add additional arguments to private functions to dynamically pass ownership of memrefs to callees. This can enable earlier deallocations.
      --gpu-lower-to-nvvm-pipeline                           -   The default pipeline lowers main dialects (arith, memref, scf, vector, gpu, and nvgpu) to NVVM. It starts by lowering GPU code to the specified compilation target (default is fatbin) then lowers the host code.
        --cubin-chip=<string>                                - Chip to use to serialize to cubin.
        --cubin-features=<string>                            - Features to use to serialize to cubin.
        --cubin-format=<string>                              - Compilation format to use to serialize to cubin.
        --cubin-triple=<string>                              - Triple to use to serialize to cubin.
        --host-bare-ptr-calling-convention                   - Whether to use the bareptr calling convention on the host (warning this should be false until the GPU layering is fixed)
        --index-bitwidth=<long>                              - Bitwidth of the index type for the host (warning this should be 64 until the GPU layering is fixed)
        --kernel-bare-ptr-calling-convention                 - Whether to use the bareptr calling convention on the kernel (warning this should be false until the GPU layering is fixed)
        --opt-level=<int>                                    - Optimization level for NVVM compilation
      --sparsifier                                           -   The standard pipeline for taking sparsity-agnostic IR using the sparse-tensor type, and lowering it to LLVM IR with concrete representations and algorithms for sparse tensors.
        --create-sparse-deallocs                             - Specify if the temporary buffers created by the sparse compiler should be deallocated. For compatibility with core bufferization passes. This option is only used when enable-runtime-library=false.
        --enable-amx                                         - Enables the use of AMX dialect while lowering the vector dialect
        --enable-arm-neon                                    - Enables the use of ArmNeon dialect while lowering the vector dialect
        --enable-arm-sve                                     - Enables the use of ArmSVE dialect while lowering the vector dialect
        --enable-buffer-initialization                       - Enable zero-initialization of memory buffers
        --enable-gpu-libgen                                  - Enables GPU acceleration by means of direct library calls (like cuSPARSE)
        --enable-index-optimizations                         - Allows compiler to assume indices fit in 32-bit if that yields faster code
        --enable-runtime-library                             - Enable runtime library for manipulating sparse tensors
        --enable-x86vector                                   - Enables the use of X86Vector dialect while lowering the vector dialect
        --gpu-chip=<string>                                  - GPU target architecture
        --gpu-features=<string>                              - GPU target features
        --gpu-format=<string>                                - GPU compilation format
        --gpu-triple=<string>                                - GPU target triple
        --parallelization-strategy=<value>                   - Set the parallelization strategy
    =none                                              -   Turn off sparse parallelization.
    =dense-outer-loop                                  -   Enable dense outer loop sparse parallelization.
    =any-storage-outer-loop                            -   Enable sparse parallelization regardless of storage for the outer loop.
    =dense-any-loop                                    -   Enable dense parallelization for any loop.
    =any-storage-any-loop                              -   Enable sparse parallelization for any storage and loop.
        --reassociate-fp-reductions                          - Allows llvm to reassociate floating-point reductions for speed
        --test-bufferization-analysis-only                   - Run only the inplacability analysis
        --vl=<int>                                           - Set the vector length (0 disables vectorization)
      --tosa-to-linalg-pipeline                              -   The default pipeline for converting TOSA operators to the equivalent operations using the tensor operations in LinAlg as well as LinAlg named operations.
  --disable-auto-upgrade-debug-info                          - Disable autoupgrade of debug info
  --disable-i2p-p2i-opt                                      - Disables inttoptr/ptrtoint roundtrip optimization
  --disable-promote-alloca-to-lds                            - Disable promote alloca to LDS
  --disable-promote-alloca-to-vector                         - Disable promote alloca to vector
  --do-counter-promotion                                     - Do counter register promotion
  --dot-cfg-mssa=<file name for generated dot file>          - file name for generated dot file
  --dump-pass-pipeline                                       - Print the pipeline that will be run
  --dwarf-version=<int>                                      - Dwarf version
  --dwarf64                                                  - Generate debugging info in the 64-bit DWARF format
  --elide-resource-data-from-bytecode                        - Elide resources when generating bytecode
  --emit-bytecode                                            - Emit bytecode when generating output
  --emit-bytecode-version=<value>                            - Use specified bytecode when generating output
  --emit-compact-unwind-non-canonical                        - Whether to try to emit Compact Unwind for non canonical entries.
  --emit-dwarf-unwind=<value>                                - Whether to emit DWARF EH frame entries.
    =always                                                  -   Always emit EH frame entries
    =no-compact-unwind                                       -   Only emit EH frame entries when compact unwind is not available
    =default                                                 -   Use target platform default
  --emscripten-cxx-exceptions-allowed=<string>               - The list of function names in which Emscripten-style exception handling is enabled (see emscripten EMSCRIPTEN_CATCHING_ALLOWED options)
  --enable-cse-in-irtranslator                               - Should enable CSE in irtranslator
  --enable-cse-in-legalizer                                  - Should enable CSE in Legalizer
  --enable-emscripten-cxx-exceptions                         - WebAssembly Emscripten-style exception handling
  --enable-emscripten-sjlj                                   - WebAssembly Emscripten-style setjmp/longjmp handling
  --enable-gvn-hoist                                         - Enable the GVN hoisting pass (default = off)
  --enable-gvn-memdep                                        - 
  --enable-gvn-sink                                          - Enable the GVN sinking pass (default = off)
  --enable-load-in-loop-pre                                  - 
  --enable-load-pre                                          - 
  --enable-loop-simplifycfg-term-folding                     - 
  --enable-name-compression                                  - Enable name/filename string compression
  --enable-split-backedge-in-load-pre                        - 
  --enable-split-loopiv-heuristic                            - Enable loop iv regalloc heuristic
  --experimental-debug-variable-locations                    - Use experimental new value-tracking variable locations
  --experimental-debuginfo-iterators                         - Enable communicating debuginfo positions through iterators, eliminating intrinsics
  --fatal-warnings                                           - Treat warnings as errors
  --force-tail-folding-style=<value>                         - Force the tail folding style
    =none                                                    -   Disable tail folding
    =data                                                    -   Create lane mask for data only, using active.lane.mask intrinsic
    =data-without-lane-mask                                  -   Create lane mask with compare/stepvector
    =data-and-control                                        -   Create lane mask using active.lane.mask intrinsic, and use it for both data and control flow
    =data-and-control-without-rt-check                       -   Similar to data-and-control, but remove the runtime check
  --fs-profile-debug-bw-threshold=<uint>                     - Only show debug message if the source branch weight is greater  than this value.
  --fs-profile-debug-prob-diff-threshold=<uint>              - Only show debug message if the branch probility is greater than this value (in percentage).
  --generate-merged-base-profiles                            - When generating nested context-sensitive profiles, always generate extra base profile for function with all its context profiles merged into it.
  --gpsize=<uint>                                            - Global Pointer Addressing Size.  The default size is 8.
  --hash-based-counter-split                                 - Rename counter variable of a comdat function based on cfg hash
  --hexagon-rdf-limit=<uint>                                 - 
  --hot-cold-split                                           - Enable hot-cold splitting pass
  --import-all-index                                         - Import all external functions in index.
  --incremental-linker-compatible                            - When used with filetype=obj, emit an object file which can be used with an incremental linker
  --instcombine-code-sinking                                 - Enable code sinking
  --instcombine-guard-widening-window=<uint>                 - How wide an instruction window to bypass looking for another guard
  --instcombine-max-num-phis=<uint>                          - Maximum number phis to handle in intptr/ptrint folding
  --instcombine-max-sink-users=<uint>                        - Maximum number of undroppable users for instruction sinking
  --instcombine-maxarray-size=<uint>                         - Maximum array size considered when doing a combine
  --instcombine-negator-enabled                              - Should we attempt to sink negations?
  --instcombine-negator-max-depth=<uint>                     - What is the maximal lookup depth when trying to check for viability of negation sinking.
  --instrprof-atomic-counter-update-all                      - Make all profile counter updates atomic (for testing only)
  --internalize-public-api-file=<filename>                   - A file containing list of symbol names to preserve
  --internalize-public-api-list=<list>                       - A list of symbol names to preserve
  --irdl-file=<filename>                                     - IRDL file to register before processing the input
  --iterative-counter-promotion                              - Allow counter promotion across the whole loop nest.
  --load-dialect-plugin=<string>                             - Load dialects from plugin library
  --load-pass-plugin=<string>                                - Load passes from plugin library
  --log-actions-to=<string>                                  - Log action execution to a file, or stderr if  '-' is passed
  --log-mlir-actions-filter=<string>                         - Comma separated list of locations to filter actions from logging
  --lto-aix-system-assembler=<path>                          - Path to a system assembler, picked up on AIX only
  --lto-embed-bitcode=<value>                                - Embed LLVM bitcode in object files produced by LTO
    =none                                                    -   Do not embed
    =optimized                                               -   Embed after all optimization passes
    =post-merge-pre-opt                                      -   Embed post merge, but before optimizations
  --lto-pass-remarks-filter=<regex>                          - Only record optimization remarks from passes whose names match the given regular expression
  --lto-pass-remarks-format=<format>                         - The format used for serializing remarks (default: YAML)
  --lto-pass-remarks-output=<filename>                       - Output filename for pass remarks
  --matrix-default-layout=<value>                            - Sets the default matrix layout
    =column-major                                            -   Use column-major layout
    =row-major                                               -   Use row-major layout
  --matrix-print-after-transpose-opt                         - 
  --max-counter-promotions=<int>                             - Max number of allowed counter promotions
  --max-counter-promotions-per-loop=<uint>                   - Max number counter promotions per loop to avoid increasing register pressure too much
  --mc-relax-all                                             - When used with filetype=obj, relax all fixups in the emitted object file
  --mcabac                                                   - tbd
  --merror-missing-parenthesis                               - Error for missing parenthesis around predicate registers
  --merror-noncontigious-register                            - Error for register names that aren't contigious
  --mhvx                                                     - Enable Hexagon Vector eXtensions
  --mhvx=<value>                                             - Enable Hexagon Vector eXtensions
    =v60                                                     -   Build for HVX v60
    =v62                                                     -   Build for HVX v62
    =v65                                                     -   Build for HVX v65
    =v66                                                     -   Build for HVX v66
    =v67                                                     -   Build for HVX v67
    =v68                                                     -   Build for HVX v68
    =v69                                                     -   Build for HVX v69
    =v71                                                     -   Build for HVX v71
    =v73                                                     -   Build for HVX v73
  --mips-compact-branches=<value>                            - MIPS Specific: Compact branch policy.
    =never                                                   -   Do not use compact branches if possible.
    =optimal                                                 -   Use compact branches where appropriate (default).
    =always                                                  -   Always use compact branches if possible.
  --mips16-constant-islands                                  - Enable mips16 constant islands.
  --mips16-hard-float                                        - Enable mips16 hard float.
  --mir-strip-debugify-only                                  - Should mir-strip-debug only strip debug info from debugified modules by default
  --misexpect-tolerance=<uint>                               - Prevents emiting diagnostics when profile counts are within N% of the threshold..
  --mlir-debug-counter=<string>                              - Comma separated list of debug counter skip and count arguments
  --mlir-disable-threading                                   - Disable multi-threading within MLIR, overrides any further call to MLIRContext::enableMultiThreading()
  --mlir-elide-elementsattrs-if-larger=<uint>                - Elide ElementsAttrs with "..." that have more elements than the given upper limit
  --mlir-elide-resource-strings-if-larger=<uint>             - Elide printing value of resources if string is too long in chars.
  --mlir-enable-debugger-hook                                - Enable Debugger hook for debugging MLIR Actions
  --mlir-generate-reproducer=<filename>                      - Generate an mlir reproducer at the provided filename (no crash required)
  --mlir-pass-pipeline-crash-reproducer=<string>             - Generate a .mlir reproducer file at the given output path if the pass manager crashes or fails
  --mlir-pass-pipeline-local-reproducer                      - When generating a crash reproducer, attempt to generated a reproducer with the smallest pipeline.
  --mlir-pass-statistics                                     - Display the statistics of each pass
  --mlir-pass-statistics-display=<value>                     - Display method for pass statistics
    =list                                                    -   display the results in a merged list sorted by pass name
    =pipeline                                                -   display the results with a nested pipeline view
  --mlir-pretty-debuginfo                                    - Print pretty debug info in MLIR output
  --mlir-print-debug-counter                                 - Print out debug counter information after all counters have been accumulated
  --mlir-print-debuginfo                                     - Print debug info in MLIR output
  --mlir-print-elementsattrs-with-hex-if-larger=<long>       - Print DenseElementsAttrs with a hex string that have more elements than the given upper limit (use -1 to disable)
  --mlir-print-ir-after=<pass-arg>                           - Print IR after specified passes
  --mlir-print-ir-after-all                                  - Print IR after each pass
  --mlir-print-ir-after-change                               - When printing the IR after a pass, only print if the IR changed
  --mlir-print-ir-after-failure                              - When printing the IR after a pass, only print if the pass failed
  --mlir-print-ir-before=<pass-arg>                          - Print IR before specified passes
  --mlir-print-ir-before-all                                 - Print IR before each pass
  --mlir-print-ir-module-scope                               - When printing IR for print-ir-[before|after]{-all} always print the top-level operation
  --mlir-print-local-scope                                   - Print with local scope and inline information (eliding aliases for attributes, types, and locations
  --mlir-print-op-on-diagnostic                              - When a diagnostic is emitted on an operation, also print the operation as an attached note
  --mlir-print-skip-regions                                  - Skip regions when printing ops.
  --mlir-print-stacktrace-on-diagnostic                      - When a diagnostic is emitted, also print the stack trace as an attached note
  --mlir-print-value-users                                   - Print users of operation results and block arguments as a comment
  --mlir-timing                                              - Display execution times
  --mlir-timing-display=<value>                              - Display method for timing data
    =list                                                    -   display the results in a list sorted by total time
    =tree                                                    -   display the results ina with a nested tree view
  --mno-compound                                             - Disable looking for compound instructions for Hexagon
  --mno-fixup                                                - Disable fixing up resolved relocations for Hexagon
  --mno-ldc1-sdc1                                            - Expand double precision loads and stores to their single precision counterparts
  --mno-pairing                                              - Disable looking for duplex instructions for Hexagon
  --mwarn-missing-parenthesis                                - Warn for missing parenthesis around predicate registers
  --mwarn-noncontigious-register                             - Warn for register names that arent contigious
  --mwarn-sign-mismatch                                      - Warn for mismatching a signed and unsigned value
  --no-deprecated-warn                                       - Suppress all deprecated warnings
  --no-discriminators                                        - Disable generation of discriminator information.
  --no-implicit-module                                       - Disable implicit addition of a top-level module op during parsing
  --no-type-check                                            - Suppress type errors (Wasm)
  --no-warn                                                  - Suppress all warnings
  --nvptx-sched4reg                                          - NVPTX Specific: schedule for register pressue
  -o <filename>                                              - Output filename
  --object-size-offset-visitor-max-visit-instructions=<uint> - Maximum number of instructions for ObjectSizeOffsetVisitor to look at
  --pass-pipeline=<string>                                   - Textual description of the pass pipeline to run
  --pgo-block-coverage                                       - Use this option to enable basic block coverage instrumentation
  --pgo-temporal-instrumentation                             - Use this option to enable temporal instrumentation
  --pgo-view-block-coverage-graph                            - Create a dot file of CFGs with block coverage inference information
  --poison-checking-function-local                           - Check that returns are non-poison (for testing)
  --print-pipeline-passes                                    - Print a '-passes' compatible string describing the pipeline (best-effort only).
  --profile-actions-to=<string>                              - Profile action execution to a file, or stderr if  '-' is passed
  --profile-correlate=<value>                                - Use debug info or binary file to correlate profiles.
    =<empty>                                                 -   No profile correlation
    =debug-info                                              -   Use debug info to correlate
    =binary                                                  -   Use binary to correlate
  --r600-ir-structurize                                      - Use StructurizeCFG IR pass
  --riscv-add-build-attributes                               - 
  --riscv-use-aa                                             - Enable the use of AA during codegen.
  --run-reproducer                                           - Run the pipeline stored in the reproducer
  --runtime-counter-relocation                               - Enable relocating counters at runtime.
  --safepoint-ir-verifier-print-only                         - 
  --sample-profile-check-record-coverage=<N>                 - Emit a warning if less than N% of records in the input profile are matched to the IR.
  --sample-profile-check-sample-coverage=<N>                 - Emit a warning if less than N% of samples in the input profile are matched to the IR.
  --sample-profile-max-propagate-iterations=<uint>           - Maximum number of iterations to go through when propagating sample block/edge weights through the CFG.
  --show-dialects                                            - Print the list of registered dialects and exit
  --skip-ret-exit-block                                      - Suppress counter promotion if exit blocks contain ret.
  --speculative-counter-promotion-max-exiting=<uint>         - The max number of exiting blocks of a loop to allow  speculative counter promotion
  --speculative-counter-promotion-to-loop                    - When the option is false, if the target block is in a loop, the promotion will be disallowed unless the promoted counter  update can be further/iteratively promoted into an acyclic  region.
  --split-input-file                                         - Split the input file into pieces and process each chunk independently
  --summary-file=<string>                                    - The summary file to use for function importing.
  --sve-tail-folding=<string>                                - Control the use of vectorisation using tail-folding for SVE where the option is specified in the form (Initial)[+(Flag1|Flag2|...)]:
                                                               disabled      (Initial) No loop types will vectorize using tail-folding
                                                               default       (Initial) Uses the default tail-folding settings for the target CPU
                                                               all           (Initial) All legal loop types will vectorize using tail-folding
                                                               simple        (Initial) Use tail-folding for simple loops (not reductions or recurrences)
                                                               reductions    Use tail-folding for loops containing reductions
                                                               noreductions  Inverse of above
                                                               recurrences   Use tail-folding for loops containing fixed order recurrences
                                                               norecurrences Inverse of above
                                                               reverse       Use tail-folding for loops requiring reversed predicates
                                                               noreverse     Inverse of above
  --tail-predication=<value>                                 - MVE tail-predication pass options
    =disabled                                                -   Don't tail-predicate loops
    =enabled-no-reductions                                   -   Enable tail-predication, but not for reduction loops
    =enabled                                                 -   Enable tail-predication, including reduction loops
    =force-enabled-no-reductions                             -   Enable tail-predication, but not for reduction loops, and force this which might be unsafe
    =force-enabled                                           -   Enable tail-predication, including reduction loops, and force this which might be unsafe
  --thinlto-assume-merged                                    - Assume the input has already undergone ThinLTO function importing and the other pre-optimization pipeline changes.
  --threads=<int>                                            - 
  --type-based-intrinsic-cost                                - Calculate intrinsics cost based only on argument types
  --verify-diagnostics                                       - Check that emitted diagnostics match expected-* lines on the corresponding line
  --verify-each                                              - Run the verifier after each transformation pass
  --verify-region-info                                       - Verify region info (time consuming)
  --verify-roundtrip                                         - Round-trip the IR after parsing and ensure it succeeds
  --vp-counters-per-site=<number>                            - The average number of profile counters allocated per value profiling site.
  --vp-static-alloc                                          - Do static counter allocation for value profiler
  --wasm-enable-eh                                           - WebAssembly exception handling
  --wasm-enable-sjlj                                         - WebAssembly setjmp/longjmp handling
  --x86-align-branch=<string>                                - Specify types of branches to align (plus separated list of types):
                                                               jcc      indicates conditional jumps
                                                               fused    indicates fused conditional jumps
                                                               jmp      indicates direct unconditional jumps
                                                               call     indicates direct and indirect calls
                                                               ret      indicates rets
                                                               indirect indicates indirect unconditional jumps
  --x86-align-branch-boundary=<uint>                         - Control how the assembler should align branches with NOP. If the boundary's size is not 0, it should be a power of 2 and no less than 32. Branches will be aligned to prevent from being across or against the boundary of specified size. The default value 0 does not align branches.
  --x86-branches-within-32B-boundaries                       - Align selected instructions to mitigate negative performance impact of Intel's micro code update for errata skx102.  May break assumptions about labels corresponding to particular instructions, and should be used with caution.
  --x86-pad-max-prefix-size=<uint>                           - Maximum number of prefixes to use for padding

Generic Options:

  --help                                                     - Display available options (--help-hidden for more)
  --help-list                                                - Display list of available options (--help-list-hidden for more)
  --version                                                  - Display the version of this program

Polly Options:
Configure the polly loop optimizer

  --polly                                                    - Enable the polly optimizer (with -O1, -O2 or -O3)
  --polly-2nd-level-tiling                                   - Enable a 2nd level loop of loop tiling
  --polly-ast-print-accesses                                 - Print memory access functions
  --polly-context=<isl parameter set>                        - Provide additional constraints on the context parameters
  --polly-dce-precise-steps=<int>                            - The number of precise steps between two approximating iterations. (A value of -1 schedules another approximation stage before the actual dead code elimination.
  --polly-delicm-max-ops=<int>                               - Maximum number of isl operations to invest for lifetime analysis; 0=no limit
  --polly-detect-full-functions                              - Allow the detection of full functions
  --polly-dump-after                                         - Dump module after Polly transformations into a file suffixed with "-after"
  --polly-dump-after-file=<string>                           - Dump module after Polly transformations to the given file
  --polly-dump-before                                        - Dump module before Polly transformations into a file suffixed with "-before"
  --polly-dump-before-file=<string>                          - Dump module before Polly transformations to the given file
  --polly-enable-simplify                                    - Simplify SCoP after optimizations
  --polly-ignore-func=<string>                               - Ignore functions that match a regex. Multiple regexes can be comma separated. Scop detection will ignore all functions that match ANY of the regexes provided.
  --polly-isl-arg=<argument>                                 - Option passed to ISL
  --polly-matmul-opt                                         - Perform optimizations of matrix multiplications based on pattern matching
  --polly-on-isl-error-abort                                 - Abort if an isl error is encountered
  --polly-only-func=<string>                                 - Only run on functions that match a regex. Multiple regexes can be comma separated. Scop detection will run on all functions that match ANY of the regexes provided.
  --polly-only-region=<identifier>                           - Only run on certain regions (The provided identifier must appear in the name of the region's entry block
  --polly-only-scop-detection                                - Only run scop detection, but no other optimizations
  --polly-optimized-scops                                    - Polly - Dump polyhedral description of Scops optimized with the isl scheduling optimizer and the set of post-scheduling transformations is applied on the schedule tree
  --polly-parallel                                           - Generate thread parallel code (isl codegen only)
  --polly-parallel-force                                     - Force generation of thread parallel code ignoring any cost model
  --polly-pattern-matching-based-opts                        - Perform optimizations based on pattern matching
  --polly-postopts                                           - Apply post-rescheduling optimizations such as tiling (requires -polly-reschedule)
  --polly-pragma-based-opts                                  - Apply user-directed transformation from metadata
  --polly-pragma-ignore-depcheck                             - Skip the dependency check for pragma-based transformations
  --polly-process-unprofitable                               - Process scops that are unlikely to benefit from Polly optimizations.
  --polly-register-tiling                                    - Enable register tiling
  --polly-report                                             - Print information about the activities of Polly
  --polly-reschedule                                         - Optimize SCoPs using ISL
  --polly-show                                               - Highlight the code regions that will be optimized in a (CFG BBs and LLVM-IR instructions)
  --polly-show-only                                          - Highlight the code regions that will be optimized in a (CFG only BBs)
  --polly-stmt-granularity=<value>                           - Algorithm to use for splitting basic blocks into multiple statements
    =bb                                                      -   One statement per basic block
    =scalar-indep                                            -   Scalar independence heuristic
    =store                                                   -   Store-level granularity
  --polly-tc-opt                                             - Perform optimizations of tensor contractions based on pattern matching
  --polly-tiling                                             - Enable loop tiling
  --polly-vectorizer=<value>                                 - Select the vectorization strategy
    =none                                                    -   No Vectorization
    =stripmine                                               -   Strip-mine outer loops for the loop-vectorizer to trigger
